To Cache or not to Cache · SmoothInterpolation.jl
…
GitHub
To Cache or not to Cache
At the initialization of the interpolation objects exposed by this package, a lot of data is precomputed and cached, see for instance the example below.

using SmoothInterpolation

u = rand(10)
t = cumsum(rand(10))

itp = SmoothedLinearInterpolation(u, t)
itp.cache

SmoothInterpolation.SmoothedLinearInterpolationCache{Vector{Float64}, Vector{Float64}, Float64, Float64}
Note: t, u stand for the inputs and outputs respectively of the original interpolation, not the inversion.
┌──────────┬──────────┐
│  u_tilde │  t_tilde │
├──────────┼──────────┤
│ 0.898901 │ 0.570199 │
│   0.8768 │ 0.635296 │
│ 0.744194 │  1.02588 │
│ 0.675897 │  1.12226 │
│ 0.398718 │  1.30997 │
│ 0.337268 │  1.36183 │
│ 0.245747 │  1.48526 │
│ 0.246634 │  1.51286 │
│    ⋮     │    ⋮     │
│ 0.591577 │  2.13674 │
│ 0.588507 │  2.23931 │
│ 0.820185 │  2.57131 │
│ 0.816453 │  2.72944 │
│ 0.562388 │  3.34626 │
│ 0.564525 │  3.49222 │
│ 0.831417 │  3.75116 │
│ 0.875899 │  3.79432 │
└──────────┴──────────┘
         4 rows omitted
…
